An R Markdown document converted from “Assignment-2024.ipynb”
…
string_network <- read_delim("string_interactions.tsv", delim="\t")

## Rows: 22808 Columns: 13
## ── Column specification ────────────────────────────────────────────────────────
## Delimiter: "\t"
## chr (4): #node1, node2, node1_string_id, node2_string_id
## dbl (9): neighborhood_on_chromosome, gene_fusion, phylogenetic_cooccurrence,...
## 
## ℹ Use `spec()` to retrieve the full column specification for this data.
## ℹ Specify the column types or set `show_col_types = FALSE` to quiet this message.

print(string_network)

## # A tibble: 22,808 × 13
##    `#node1` node2    node1_string_id      node2_string_id neighborhood_on_chro…¹
##    <chr>    <chr>    <chr>                <chr>                            <dbl>
##  1 A2M      NFKB1    9606.ENSP00000323929 9606.ENSP00000…                      0
##  2 A2M      CTSD     9606.ENSP00000323929 9606.ENSP00000…                      0
##  3 A2M      LRP1     9606.ENSP00000323929 9606.ENSP00000…                      0
##  4 A2M      GDF15    9606.ENSP00000323929 9606.ENSP00000…                      0
##  5 A2M      PDGFRB   9606.ENSP00000323929 9606.ENSP00000…                      0
##  6 A2M      C4BPA    9606.ENSP00000323929 9606.ENSP00000…                      0
##  7 A2M      ISG15    9606.ENSP00000323929 9606.ENSP00000…                      0
##  8 A2M      ALDOA    9606.ENSP00000323929 9606.ENSP00000…                      0
##  9 A2M      SERPINB1 9606.ENSP00000323929 9606.ENSP00000…                      0
## 10 A2M      APOD     9606.ENSP00000323929 9606.ENSP00000…                      0
## # ℹ 22,798 more rows
## # ℹ abbreviated name: ¹​neighborhood_on_chromosome
## # ℹ 8 more variables: gene_fusion <dbl>, phylogenetic_cooccurrence <dbl>,
## #   homology <dbl>, coexpression <dbl>,
## #   experimentally_determined_interaction <dbl>, database_annotated <dbl>,
## #   automated_textmining <dbl>, combined_score <dbl>
…
